<?xml version="1.0" encoding="utf-8"?>
<!-- Generator: Adobe Illustrator 23.0.3, SVG Export Plug-In . SVG Version: 6.00 Build 0)  -->
<svg version="1.0" id="Layer_1" xmlns="http://www.w3.org/2000/svg" xmlns:xlink="http://www.w3.org/1999/xlink" x="0px" y="0px"
	 viewBox="0 0 16 16" enable-background="new 0 0 16 16" xml:space="preserve">
<g id="layers">
	<g>
		<g>
			<rect x="1" y="13" fill="#808080" width="14" height="2"/>
		</g>
		<g>
			<rect x="1" y="10.6" fill="#808080" width="14" height="1.74"/>
		</g>
		<g>
			<rect x="1" y="8.19" fill="#808080" width="14" height="1.47"/>
		</g>
		<g>
			<rect x="1" y="5.79" fill="#95D1B0" width="14" height="1.2"/>
		</g>
		<g>
			<rect x="1" y="3.39" fill="#95D1B0" width="14" height="0.93"/>
		</g>
		<g>
			<rect x="1" y="0.99" fill="#808080" width="14" height="0.67"/>
		</g>
	</g>
</g>
</svg>
