<?xml version="1.0" encoding="utf-8"?>
<!-- Generator: Adobe Illustrator 23.0.3, SVG Export Plug-In . SVG Version: 6.00 Build 0)  -->
<svg version="1.0" id="Layer_1" xmlns="http://www.w3.org/2000/svg" xmlns:xlink="http://www.w3.org/1999/xlink" x="0px" y="0px"
	 viewBox="0 0 16 16" enable-background="new 0 0 16 16" xml:space="preserve">
<g id="resin">
	<rect x="4" y="7" fill="#95D1B0" width="8" height="8"/>
	<path fill="none" stroke="#808080" stroke-linecap="round" stroke-miterlimit="10" d="M4.5,15h6.99c0.28,0,0.5-0.23,0.5-0.5V6
		c0-1-2-1-2-2s0-1,0-1h1V1.5C11,1.23,10.77,1,10.5,1H5.5C5.23,1,5,1.23,5,1.5V3h1v1c0,1-2,1-2,2v8.5C4,14.77,4.23,15,4.5,15z"/>
</g>
</svg>
