<?xml version="1.0" encoding="utf-8"?>
<!-- Generator: Adobe Illustrator 23.0.3, SVG Export Plug-In . SVG Version: 6.00 Build 0)  -->
<svg version="1.0" id="Layer_1" xmlns="http://www.w3.org/2000/svg" xmlns:xlink="http://www.w3.org/1999/xlink" x="0px" y="0px"
	 viewBox="0 0 16 16" enable-background="new 0 0 16 16" xml:space="preserve">
<g id="undo">
	<path fill="none" stroke="#95D1B0" stroke-width="2" stroke-linecap="round" stroke-miterlimit="10" d="M3,11
		c0.91,1.78,2.76,3,4.89,3c3.04,0,5.5-2.46,5.5-5.5c0-3.04-2.46-5.5-5.5-5.5c-0.17,0-0.34,0.01-0.5,0.03"/>
	
		<polygon fill="#95D1B0" stroke="#95D1B0" stroke-width="2" stroke-linecap="round" stroke-linejoin="round" stroke-miterlimit="10" points="
		7.39,1 7.39,5 4.39,3 	"/>
</g>
</svg>
